Mini_Project3
…
d5 <-d4%>%
  gather(key="movie_type",value = "amount",-decade)
d5

## # A tibble: 30 x 3
##    decade movie_type amount
##     <dbl>      <chr>  <int>
##  1   1890    sequels     16
##  2   1900    sequels     78
##  3   1910    sequels  38034
##  4   1920    sequels  21692
##  5   1930    sequels   5026
##  6   1940    sequels  14988
##  7   1950    sequels   8227
##  8   1960    sequels   8146
##  9   1970    sequels   2655
## 10   1980    sequels   2560
## # ... with 20 more rows

```

#deal with data for percentage bar graph
d_percentage<- d4 %>%
  mutate(total = sequels+original,
    sequels_percentage = sequels*100/total, 
        original_percentage = original*100/total) %>%
  select(sequels_percentage, original_percentage, decade, total) %>% 
  tidyr::gather(key = "type_of_movies", value = "percentage", -decade, -total)
d_percentage

## # A tibble: 30 x 4
##    decade total     type_of_movies percentage
##     <dbl> <int>              <chr>      <dbl>
##  1   1890    32 sequels_percentage   50.00000
##  2   1900    NA sequels_percentage         NA
##  3   1910 63925 sequels_percentage   59.49785
##  4   1920 54946 sequels_percentage   39.47876
##  5   1930  7307 sequels_percentage   68.78336
##  6   1940 25792 sequels_percentage   58.11104
##  7   1950 17894 sequels_percentage   45.97630
##  8   1960 17880 sequels_percentage   45.55928
##  9   1970  8869 sequels_percentage   29.93573
## 10   1980  4437 sequels_percentage   57.69664
## # ... with 20 more rows
…
